1;2021-06-14;uno;primero;303030;false
2;2021-06-12;Dos;Segundo;30863785;true
4;2021-06-14;Tres;Tercero;30558723;false
5;2021-06-12;Cuatro;Cuarto;303030;true
15;1537-02-28;Quince;Decimo quinto;1234567;true
