/home/edu/eclipse-workspace/WhiskyFx/src/utn/frp/p3/application/view/WhiskyEditDialogController.java
/home/edu/eclipse-workspace/WhiskyFx/src/utn/frp/p3/application/middleware/ServerAccess.java
/home/edu/eclipse-workspace/WhiskyFx/src/utn/frp/p3/MainApp.java
/home/edu/eclipse-workspace/WhiskyFx/src/utn/frp/p3/application/view/RootLayoutController.java
/home/edu/eclipse-workspace/WhiskyFx/src/module-info.java
/home/edu/eclipse-workspace/WhiskyFx/src/utn/frp/p3/application/model/Whisky.java
/home/edu/eclipse-workspace/WhiskyFx/src/utn/frp/p3/application/view/WhiskyController.java
